^D:\USERS\DESKTOP\ADVANCEPHYSICS\ADVANCEPHYSICS\ASSIGNMENT2\ASSIGNMENT 2\DEBUG\APP.OBJ|D:\USERS\DESKTOP\ADVANCEPHYSICS\ADVANCEPHYSICS\ASSIGNMENT2\ASSIGNMENT 2\DEBUG\DICE.OBJ|D:\USERS\DESKTOP\ADVANCEPHYSICS\ADVANCEPHYSICS\ASSIGNMENT2\ASSIGNMENT 2\DEBUG\FRACTURE.OBJ|D:\USERS\DESKTOP\ADVANCEPHYSICS\ADVANCEPHYSICS\ASSIGNMENT2\ASSIGNMENT 2\DEBUG\MAIN.OBJ|D:\USERS\DESKTOP\ADVANCEPHYSICS\ADVANCEPHYSICS\ASSIGNMENT2\ASSIGNMENT 2\DEBUG\TIMING.OBJ
/ERRORREPORT:PROMPT /OUT:"..\..\bin\Assignment 2.exe" /NOLOGO /LIBPATH:..\..\lib cyclone_d.lib opengl32.lib glu32.lib glut32.lib winmm.lib kernel32.lib user32.lib gdi32.lib winspool.lib comdlg32.lib advapi32.lib shell32.lib ole32.lib oleaut32.lib uuid.lib odbc32.lib odbccp32.lib /MANIFEST /ManifestFile:"Debug\Assignment 2.exe.intermediate.manifest" /MANIFESTUAC:"level='asInvoker' uiAccess='false'" /DEBUG /PDB:"D:\Users\Desktop\AdvancePhysics\AdvancePhysics\bin\Assignment 2.pdb" /TLBID:1 /DYNAMICBASE /NXCOMPAT /IMPLIB:"..\..\bin\Assignment 2.lib" /MACHINE:X86 Debug\app.obj
Debug\fracture.obj
Debug\main.obj
Debug\timing.obj
Debug\dice.obj
