^D:\USERS\DESKTOP\ADVANCEPHYSICS\ADVANCEPHYSICS\SRC\DEMOS\APP.CPP|D:\USERS\DESKTOP\ADVANCEPHYSICS\ADVANCEPHYSICS\SRC\DEMOS\BALLISTIC\BALLISTIC.CPP|D:\USERS\DESKTOP\ADVANCEPHYSICS\ADVANCEPHYSICS\SRC\DEMOS\TIMING.CPP
D:\USERS\DESKTOP\ADVANCEPHYSICS\ADVANCEPHYSICS\TMP\BALLISTIC\DEBUG\BALLISTIC.OBJ
D:\USERS\DESKTOP\ADVANCEPHYSICS\ADVANCEPHYSICS\TMP\BALLISTIC\DEBUG\APP.OBJ
D:\USERS\DESKTOP\ADVANCEPHYSICS\ADVANCEPHYSICS\TMP\BALLISTIC\DEBUG\TIMING.OBJ
^D:\USERS\DESKTOP\ADVANCEPHYSICS\ADVANCEPHYSICS\SRC\DEMOS\BALLISTIC\BALLISTIC.CPP
D:\USERS\DESKTOP\ADVANCEPHYSICS\ADVANCEPHYSICS\TMP\BALLISTIC\DEBUG\VC100.PDB
^D:\USERS\DESKTOP\ADVANCEPHYSICS\ADVANCEPHYSICS\SRC\DEMOS\APP.CPP
D:\USERS\DESKTOP\ADVANCEPHYSICS\ADVANCEPHYSICS\TMP\BALLISTIC\DEBUG\VC100.PDB
^D:\USERS\DESKTOP\ADVANCEPHYSICS\ADVANCEPHYSICS\SRC\DEMOS\TIMING.CPP
D:\USERS\DESKTOP\ADVANCEPHYSICS\ADVANCEPHYSICS\TMP\BALLISTIC\DEBUG\VC100.PDB
^D:\USERS\DESKTOP\ADVANCEPHYSICS\ADVANCEPHYSICS\SRC\DEMOS\MAIN.CPP
D:\USERS\DESKTOP\ADVANCEPHYSICS\ADVANCEPHYSICS\TMP\BALLISTIC\DEBUG\MAIN1.OBJ
D:\USERS\DESKTOP\ADVANCEPHYSICS\ADVANCEPHYSICS\TMP\BALLISTIC\DEBUG\VC100.PDB
