^D:\USERS\DESKTOP\ADVANCEPHYSICS\ADVANCEPHYSICS\TMP\BALLISTIC\DEBUG\APP.OBJ|D:\USERS\DESKTOP\ADVANCEPHYSICS\ADVANCEPHYSICS\TMP\BALLISTIC\DEBUG\BALLISTIC.OBJ|D:\USERS\DESKTOP\ADVANCEPHYSICS\ADVANCEPHYSICS\TMP\BALLISTIC\DEBUG\BALLISTIC_D.EXE.EMBED.MANIFEST.RES|D:\USERS\DESKTOP\ADVANCEPHYSICS\ADVANCEPHYSICS\TMP\BALLISTIC\DEBUG\MAIN1.OBJ|D:\USERS\DESKTOP\ADVANCEPHYSICS\ADVANCEPHYSICS\TMP\BALLISTIC\DEBUG\TIMING.OBJ
D:\USERS\DESKTOP\ADVANCEPHYSICS\ADVANCEPHYSICS\LIB\CYCLONE_D.LIB
C:\PROGRAM FILES (X86)\MICROSOFT SDKS\WINDOWS\V7.0A\LIB\OPENGL32.LIB
C:\PROGRAM FILES (X86)\MICROSOFT SDKS\WINDOWS\V7.0A\LIB\GLU32.LIB
D:\USERS\DESKTOP\ADVANCEPHYSICS\ADVANCEPHYSICS\LIB\GLUT32.LIB
C:\PROGRAM FILES (X86)\MICROSOFT SDKS\WINDOWS\V7.0A\LIB\WINMM.LIB
C:\PROGRAM FILES (X86)\MICROSOFT SDKS\WINDOWS\V7.0A\LIB\KERNEL32.LIB
C:\PROGRAM FILES (X86)\MICROSOFT SDKS\WINDOWS\V7.0A\LIB\USER32.LIB
C:\PROGRAM FILES (X86)\MICROSOFT SDKS\WINDOWS\V7.0A\LIB\GDI32.LIB
C:\PROGRAM FILES (X86)\MICROSOFT SDKS\WINDOWS\V7.0A\LIB\WINSPOOL.LIB
C:\PROGRAM FILES (X86)\MICROSOFT SDKS\WINDOWS\V7.0A\LIB\COMDLG32.LIB
C:\PROGRAM FILES (X86)\MICROSOFT SDKS\WINDOWS\V7.0A\LIB\ADVAPI32.LIB
C:\PROGRAM FILES (X86)\MICROSOFT SDKS\WINDOWS\V7.0A\LIB\SHELL32.LIB
C:\PROGRAM FILES (X86)\MICROSOFT SDKS\WINDOWS\V7.0A\LIB\OLE32.LIB
C:\PROGRAM FILES (X86)\MICROSOFT SDKS\WINDOWS\V7.0A\LIB\OLEAUT32.LIB
C:\PROGRAM FILES (X86)\MICROSOFT SDKS\WINDOWS\V7.0A\LIB\UUID.LIB
C:\PROGRAM FILES (X86)\MICROSOFT SDKS\WINDOWS\V7.0A\LIB\ODBC32.LIB
C:\PROGRAM FILES (X86)\MICROSOFT SDKS\WINDOWS\V7.0A\LIB\ODBCCP32.LIB
D:\USERS\DESKTOP\ADVANCEPHYSICS\ADVANCEPHYSICS\TMP\BALLISTIC\DEBUG\BALLISTIC_D.EXE.EMBED.MANIFEST.RES
D:\USERS\DESKTOP\ADVANCEPHYSICS\ADVANCEPHYSICS\TMP\BALLISTIC\DEBUG\BALLISTIC.OBJ
D:\USERS\DESKTOP\ADVANCEPHYSICS\ADVANCEPHYSICS\TMP\BALLISTIC\DEBUG\APP.OBJ
D:\USERS\DESKTOP\ADVANCEPHYSICS\ADVANCEPHYSICS\TMP\BALLISTIC\DEBUG\TIMING.OBJ
D:\USERS\DESKTOP\ADVANCEPHYSICS\ADVANCEPHYSICS\TMP\BALLISTIC\DEBUG\MAIN1.OBJ
C:\WINDOWS\SYSTEM32\TZRES.DLL
D:\USERS\DESKTOP\ADVANCEPHYSICS\ADVANCEPHYSICS\BIN\BALLISTIC_D.ILK
D:\USERS\DESKTOP\ADVANCEPHYSICS\ADVANCEPHYSICS\BIN\BALLISTIC_D.EXE
D:\USERS\DESKTOP\ADVANCEPHYSICS\ADVANCEPHYSICS\TMP\BALLISTIC\DEBUG\BALLISTIC.PDB
C:\WINDOWS\GLOBALIZATION\SORTING\SORTDEFAULT.NLS
C:\PROGRAM FILES (X86)\MICROSOFT VISUAL STUDIO 10.0\VC\LIB\LIBCPMTD.LIB
C:\PROGRAM FILES (X86)\MICROSOFT VISUAL STUDIO 10.0\VC\LIB\LIBCMTD.LIB
C:\PROGRAM FILES (X86)\MICROSOFT VISUAL STUDIO 10.0\VC\LIB\OLDNAMES.LIB
C:\PROGRAM FILES (X86)\MICROSOFT VISUAL STUDIO 10.0\VC\BIN\CVTRES.EXE
C:\PROGRAM FILES (X86)\MICROSOFT VISUAL STUDIO 10.0\VC\BIN\LINK.EXE
C:\WINDOWS\SYSTEM32\RSAENH.DLL
