^D:\USERS\DESKTOP\ADVANCEPHYSICS\ADVANCEPHYSICS\BUILD\TMP\DEBUG\BODY.OBJ|D:\USERS\DESKTOP\ADVANCEPHYSICS\ADVANCEPHYSICS\BUILD\TMP\DEBUG\COLLIDE_COARSE.OBJ|D:\USERS\DESKTOP\ADVANCEPHYSICS\ADVANCEPHYSICS\BUILD\TMP\DEBUG\COLLIDE_FINE.OBJ|D:\USERS\DESKTOP\ADVANCEPHYSICS\ADVANCEPHYSICS\BUILD\TMP\DEBUG\CONTACTS.OBJ|D:\USERS\DESKTOP\ADVANCEPHYSICS\ADVANCEPHYSICS\BUILD\TMP\DEBUG\CORE.OBJ|D:\USERS\DESKTOP\ADVANCEPHYSICS\ADVANCEPHYSICS\BUILD\TMP\DEBUG\FGEN.OBJ|D:\USERS\DESKTOP\ADVANCEPHYSICS\ADVANCEPHYSICS\BUILD\TMP\DEBUG\JOINTS.OBJ|D:\USERS\DESKTOP\ADVANCEPHYSICS\ADVANCEPHYSICS\BUILD\TMP\DEBUG\PARTICLE.OBJ|D:\USERS\DESKTOP\ADVANCEPHYSICS\ADVANCEPHYSICS\BUILD\TMP\DEBUG\PCONTACTS.OBJ|D:\USERS\DESKTOP\ADVANCEPHYSICS\ADVANCEPHYSICS\BUILD\TMP\DEBUG\PFGEN.OBJ|D:\USERS\DESKTOP\ADVANCEPHYSICS\ADVANCEPHYSICS\BUILD\TMP\DEBUG\PLINKS.OBJ|D:\USERS\DESKTOP\ADVANCEPHYSICS\ADVANCEPHYSICS\BUILD\TMP\DEBUG\PWORLD.OBJ|D:\USERS\DESKTOP\ADVANCEPHYSICS\ADVANCEPHYSICS\BUILD\TMP\DEBUG\RANDOM.OBJ|D:\USERS\DESKTOP\ADVANCEPHYSICS\ADVANCEPHYSICS\BUILD\TMP\DEBUG\WORLD.OBJ
/OUT:"..\lib\cyclone_d.lib" /NOLOGO .\tmp\Debug/body.obj
.\tmp\Debug/collide_coarse.obj
.\tmp\Debug/collide_fine.obj
.\tmp\Debug/contacts.obj
.\tmp\Debug/core.obj
.\tmp\Debug/fgen.obj
.\tmp\Debug/joints.obj
.\tmp\Debug/particle.obj
.\tmp\Debug/pcontacts.obj
.\tmp\Debug/pfgen.obj
.\tmp\Debug/plinks.obj
.\tmp\Debug/pworld.obj
.\tmp\Debug/random.obj
.\tmp\Debug/world.obj
