^D:\USERS\DESKTOP\ADVANCEPHYSICS\ADVANCED-PHYSICS-MASTER_DEMO\DEMOS\DICE\APP.CPP
/c /I..\include /Zi /nologo /W3 /WX- /Od /Oy- /D WIN32 /D _DEBUG /D _CONSOLE /D _VC80_UPGRADE=0x0710 /D _MBCS /D GLUT_BUILDING_LIB /Gm /EHsc /RTC1 /MTd /GS /fp:precise /Zc:wchar_t /Zc:forScope /Fo"..\tmp\advancedphysics\Debug\\" /Fd"..\tmp\advancedphysics\Debug\vc100.pdb" /Gd /TP /analyze- /errorReport:prompt D:\USERS\DESKTOP\ADVANCEPHYSICS\ADVANCED-PHYSICS-MASTER_DEMO\DEMOS\DICE\APP.CPP
^D:\USERS\DESKTOP\ADVANCEPHYSICS\ADVANCED-PHYSICS-MASTER_DEMO\DEMOS\DICE\DICEDEMO.CPP
/c /I..\include /Zi /nologo /W3 /WX- /Od /Oy- /D WIN32 /D _DEBUG /D _CONSOLE /D _VC80_UPGRADE=0x0710 /D _MBCS /D GLUT_BUILDING_LIB /Gm /EHsc /RTC1 /MTd /GS /fp:precise /Zc:wchar_t /Zc:forScope /Fo"..\tmp\advancedphysics\Debug\\" /Fd"..\tmp\advancedphysics\Debug\vc100.pdb" /Gd /TP /analyze- /errorReport:prompt D:\USERS\DESKTOP\ADVANCEPHYSICS\ADVANCED-PHYSICS-MASTER_DEMO\DEMOS\DICE\DICEDEMO.CPP
^D:\USERS\DESKTOP\ADVANCEPHYSICS\ADVANCED-PHYSICS-MASTER_DEMO\DEMOS\DICE\MAIN.CPP
/c /I..\include /Zi /nologo /W3 /WX- /Od /Oy- /D WIN32 /D _DEBUG /D _CONSOLE /D _VC80_UPGRADE=0x0710 /D _MBCS /D GLUT_BUILDING_LIB /Gm /EHsc /RTC1 /MTd /GS /fp:precise /Zc:wchar_t /Zc:forScope /Fo"..\tmp\advancedphysics\Debug\\" /Fd"..\tmp\advancedphysics\Debug\vc100.pdb" /Gd /TP /analyze- /errorReport:prompt D:\USERS\DESKTOP\ADVANCEPHYSICS\ADVANCED-PHYSICS-MASTER_DEMO\DEMOS\DICE\MAIN.CPP
^D:\USERS\DESKTOP\ADVANCEPHYSICS\ADVANCED-PHYSICS-MASTER_DEMO\DEMOS\DICE\SQUADRIC.CPP
/c /I..\include /Zi /nologo /W3 /WX- /Od /Oy- /D WIN32 /D _DEBUG /D _CONSOLE /D _VC80_UPGRADE=0x0710 /D _MBCS /D GLUT_BUILDING_LIB /Gm /EHsc /RTC1 /MTd /GS /fp:precise /Zc:wchar_t /Zc:forScope /Fo"..\tmp\advancedphysics\Debug\\" /Fd"..\tmp\advancedphysics\Debug\vc100.pdb" /Gd /TP /analyze- /errorReport:prompt D:\USERS\DESKTOP\ADVANCEPHYSICS\ADVANCED-PHYSICS-MASTER_DEMO\DEMOS\DICE\SQUADRIC.CPP
^D:\USERS\DESKTOP\ADVANCEPHYSICS\ADVANCED-PHYSICS-MASTER_DEMO\DEMOS\DICE\TIMING.CPP
/c /I..\include /Zi /nologo /W3 /WX- /Od /Oy- /D WIN32 /D _DEBUG /D _CONSOLE /D _VC80_UPGRADE=0x0710 /D _MBCS /D GLUT_BUILDING_LIB /Gm /EHsc /RTC1 /MTd /GS /fp:precise /Zc:wchar_t /Zc:forScope /Fo"..\tmp\advancedphysics\Debug\\" /Fd"..\tmp\advancedphysics\Debug\vc100.pdb" /Gd /TP /analyze- /errorReport:prompt D:\USERS\DESKTOP\ADVANCEPHYSICS\ADVANCED-PHYSICS-MASTER_DEMO\DEMOS\DICE\TIMING.CPP
